<?xml version="1.0" encoding="UTF-8"?>
<!DOCTYPE svg PUBLIC '-//W3C//DTD SVG 1.0//EN'
          'http://www.w3.org/TR/2001/REC-SVG-20010904/DTD/svg10.dtd'>
<svg fill-opacity="1" xmlns:xlink="http://www.w3.org/1999/xlink" color-rendering="auto" color-interpolation="auto" text-rendering="auto" stroke="black" stroke-linecap="square" width="1620" stroke-miterlimit="10" shape-rendering="auto" stroke-opacity="1" fill="black" stroke-dasharray="none" font-weight="normal" stroke-width="1" viewBox="100 -10 1620 1000" height="1000" xmlns="http://www.w3.org/2000/svg" font-family="'Dialog'" font-style="normal" stroke-linejoin="miter" font-size="12px" stroke-dashoffset="0" image-rendering="auto"
><!--Generated by the Batik Graphics2D SVG Generator--><defs id="genericDefs"
  /><g
  ><defs id="defs1"
    ><clipPath clipPathUnits="userSpaceOnUse" id="clipPath1"
      ><path d="M0 0 L2147483647 0 L2147483647 2147483647 L0 2147483647 L0 0 Z"
      /></clipPath
      ><clipPath clipPathUnits="userSpaceOnUse" id="clipPath2"
      ><path d="M0 0 L0 330 L450 330 L450 0 Z"
      /></clipPath
      ><clipPath clipPathUnits="userSpaceOnUse" id="clipPath3"
      ><path d="M0 0 L0 250 L440 250 L440 0 Z"
      /></clipPath
      ><clipPath clipPathUnits="userSpaceOnUse" id="clipPath4"
      ><path d="M0 0 L0 30 L100 30 L100 0 Z"
      /></clipPath
      ><clipPath clipPathUnits="userSpaceOnUse" id="clipPath5"
      ><path d="M0 0 L0 220 L580 220 L580 0 Z"
      /></clipPath
      ><clipPath clipPathUnits="userSpaceOnUse" id="clipPath6"
      ><path d="M0 0 L0 170 L30 170 L30 0 Z"
      /></clipPath
      ><clipPath clipPathUnits="userSpaceOnUse" id="clipPath7"
      ><path d="M0 0 L0 50 L750 50 L750 0 Z"
      /></clipPath
      ><clipPath clipPathUnits="userSpaceOnUse" id="clipPath8"
      ><path d="M0 0 L0 240 L30 240 L30 0 Z"
      /></clipPath
      ><clipPath clipPathUnits="userSpaceOnUse" id="clipPath9"
      ><path d="M0 0 L0 140 L30 140 L30 0 Z"
      /></clipPath
    ></defs
    ><g fill="rgb(255,255,255)" fill-opacity="0" transform="translate(870,10)" stroke-opacity="0" stroke="rgb(255,255,255)"
    ><rect x="0.5" width="448.5" height="328.5" y="0.5" clip-path="url(#clipPath2)" stroke="none"
    /></g
    ><g transform="translate(870,10)"
    ><rect fill="none" x="0.5" width="448.5" height="328.5" y="0.5" clip-path="url(#clipPath2)"
      /><text x="201" font-size="14px" y="18.1094" clip-path="url(#clipPath2)" font-family="sans-serif" stroke="none" xml:space="preserve"
      >Packet</text
      ><path fill="none" d="M1 24.1094 L449 24.1094" clip-path="url(#clipPath2)"
      /><text x="5" font-size="14px" y="39.2188" clip-path="url(#clipPath2)" font-family="sans-serif" stroke="none" xml:space="preserve"
      >int _id;</text
      ><text x="5" font-size="14px" y="55.3281" clip-path="url(#clipPath2)" font-family="sans-serif" stroke="none" xml:space="preserve"
      >int _length;</text
      ><text x="5" font-size="14px" y="71.4375" clip-path="url(#clipPath2)" font-family="sans-serif" stroke="none" xml:space="preserve"
      >int _checksum;</text
      ><text x="5" font-size="14px" y="87.5469" clip-path="url(#clipPath2)" font-family="sans-serif" stroke="none" xml:space="preserve"
      >char _data[64];</text
      ><path fill="none" d="M1 93.5469 L449 93.5469" clip-path="url(#clipPath2)"
      /><text x="5" font-size="14px" y="108.6562" clip-path="url(#clipPath2)" font-family="sans-serif" stroke="none" xml:space="preserve"
      >+ Packet();</text
      ><text x="5" font-size="14px" y="124.7656" clip-path="url(#clipPath2)" font-family="sans-serif" stroke="none" xml:space="preserve"
      >+ Packet(const Packet&amp;);</text
      ><text x="5" font-size="14px" y="140.875" clip-path="url(#clipPath2)" font-family="sans-serif" stroke="none" xml:space="preserve"
      >+ Packet(const packet &amp;);</text
      ><text x="5" font-size="14px" y="156.9844" clip-path="url(#clipPath2)" font-family="sans-serif" stroke="none" xml:space="preserve"
      >+ ~Packet();</text
      ><text x="5" font-size="14px" y="173.0938" clip-path="url(#clipPath2)" font-family="sans-serif" stroke="none" xml:space="preserve"
      >+ packet getPacket() const;</text
      ><text x="5" font-size="14px" y="189.2031" clip-path="url(#clipPath2)" font-family="sans-serif" stroke="none" xml:space="preserve"
      >+ int getId() const;</text
      ><text x="5" font-size="14px" y="205.3125" clip-path="url(#clipPath2)" font-family="sans-serif" stroke="none" xml:space="preserve"
      >+ int getLength() const;</text
      ><text x="5" font-size="14px" y="221.4219" clip-path="url(#clipPath2)" font-family="sans-serif" stroke="none" xml:space="preserve"
      >+ int getChecksum() const;</text
      ><text x="5" font-size="14px" y="237.5312" clip-path="url(#clipPath2)" font-family="sans-serif" stroke="none" xml:space="preserve"
      >+ string getData() const;</text
      ><text x="5" font-size="14px" y="253.6406" clip-path="url(#clipPath2)" font-family="sans-serif" stroke="none" xml:space="preserve"
      >+ void setData(char*);</text
      ><text x="5" font-size="14px" y="269.75" clip-path="url(#clipPath2)" font-family="sans-serif" stroke="none" xml:space="preserve"
      >+ void setChecksum(int); //Only for tests usage</text
      ><text x="5" font-size="14px" y="285.8594" clip-path="url(#clipPath2)" font-family="sans-serif" stroke="none" xml:space="preserve"
      >+ bool isPacketCorrect();</text
      ><text x="5" font-size="14px" y="301.9688" clip-path="url(#clipPath2)" font-family="sans-serif" stroke="none" xml:space="preserve"
      >+ void calculChecksum();</text
      ><text x="5" font-size="14px" y="318.0781" clip-path="url(#clipPath2)" font-family="sans-serif" stroke="none" xml:space="preserve"
      >+ char* serializePacket() const;</text
    ></g
    ><g fill="rgb(255,255,255)" fill-opacity="0" transform="translate(1260,710)" stroke-opacity="0" stroke="rgb(255,255,255)"
    ><rect x="0.5" width="438.5" height="248.5" y="0.5" clip-path="url(#clipPath3)" stroke="none"
    /></g
    ><g transform="translate(1260,710)"
    ><rect fill="none" x="0.5" width="438.5" height="248.5" y="0.5" clip-path="url(#clipPath3)"
      /><text x="196" font-size="14px" y="18.1094" clip-path="url(#clipPath3)" font-family="sans-serif" stroke="none" xml:space="preserve"
      >Prober</text
      ><path fill="none" d="M1 24.1094 L439 24.1094" clip-path="url(#clipPath3)"
      /><text x="5" font-size="14px" y="39.2188" clip-path="url(#clipPath3)" font-family="sans-serif" stroke="none" xml:space="preserve"
      >+ enum mode {UNDEFINED, FLUSH_FLUSH, FLUSH_RELOAD}</text
      ><text x="5" font-size="14px" y="55.3281" clip-path="url(#clipPath3)" font-family="sans-serif" stroke="none" xml:space="preserve"
      >- mode _m;</text
      ><text x="5" font-size="14px" y="71.4375" clip-path="url(#clipPath3)" font-family="sans-serif" stroke="none" xml:space="preserve"
      >- int _timeout;</text
      ><path fill="none" d="M1 77.4375 L439 77.4375" clip-path="url(#clipPath3)"
      /><text x="5" font-size="14px" y="92.5469" clip-path="url(#clipPath3)" font-family="sans-serif" stroke="none" xml:space="preserve"
      >- Prober();</text
      ><text x="5" font-size="14px" y="108.6562" clip-path="url(#clipPath3)" font-family="sans-serif" stroke="none" xml:space="preserve"
      >- Prober(Prober::mode m, int timeout);</text
      ><text x="5" font-size="14px" y="124.7656" clip-path="url(#clipPath3)" font-family="sans-serif" stroke="none" xml:space="preserve"
      >- ~Prober();</text
      ><text x="5" font-size="14px" y="140.875" clip-path="url(#clipPath3)" font-family="sans-serif" stroke="none" xml:space="preserve"
      >- int probe(void *addr);</text
      ><text x="5" font-size="14px" y="156.9844" clip-path="url(#clipPath3)" font-family="sans-serif" stroke="none" xml:space="preserve"
      >- int getTimeout() const;</text
      ><text x="5" font-size="14px" y="173.0938" clip-path="url(#clipPath3)" font-family="sans-serif" stroke="none" xml:space="preserve"
      >- mode getMode() const;</text
      ><text x="5" font-size="14px" y="189.2031" clip-path="url(#clipPath3)" font-family="sans-serif" stroke="none" xml:space="preserve"
      >- void setMode(mode m);</text
      ><text x="5" font-size="14px" y="205.3125" clip-path="url(#clipPath3)" font-family="sans-serif" stroke="none" xml:space="preserve"
      >- void setTimeout(int t);</text
      ><text x="5" font-size="14px" y="221.4219" clip-path="url(#clipPath3)" font-family="sans-serif" stroke="none" xml:space="preserve"
      >+ int probe_fr(void *addr);</text
      ><text x="5" font-size="14px" y="237.5312" clip-path="url(#clipPath3)" font-family="sans-serif" stroke="none" xml:space="preserve"
      >+int probe_ff(void *addr);</text
    ></g
    ><g fill="rgb(255,255,255)" fill-opacity="0" transform="translate(400,110)" stroke-opacity="0" stroke="rgb(255,255,255)"
    ><rect x="0.5" width="98.5" height="28.5" y="0.5" clip-path="url(#clipPath4)" stroke="none"
    /></g
    ><g transform="translate(400,110)"
    ><rect fill="none" x="0.5" width="98.5" height="28.5" y="0.5" clip-path="url(#clipPath4)"
      /><text x="7" font-size="14px" y="18.1094" clip-path="url(#clipPath4)" font-family="sans-serif" stroke="none" xml:space="preserve"
      >SimpleClass</text
    ></g
    ><g fill="rgb(255,255,255)" fill-opacity="0" transform="translate(1420,470)" stroke-opacity="0" stroke="rgb(255,255,255)"
    ><rect x="0.5" width="98.5" height="28.5" y="0.5" clip-path="url(#clipPath4)" stroke="none"
    /></g
    ><g transform="translate(1420,470)"
    ><rect fill="none" x="0.5" width="98.5" height="28.5" y="0.5" clip-path="url(#clipPath4)"
      /><text x="29" font-size="14px" y="18.1094" clip-path="url(#clipPath4)" font-family="sans-serif" stroke="none" xml:space="preserve"
      >Client</text
    ></g
    ><g fill="rgb(255,255,255)" fill-opacity="0" transform="translate(300,690)" stroke-opacity="0" stroke="rgb(255,255,255)"
    ><rect x="0.5" width="98.5" height="28.5" y="0.5" clip-path="url(#clipPath4)" stroke="none"
    /></g
    ><g transform="translate(300,690)"
    ><rect fill="none" x="0.5" width="98.5" height="28.5" y="0.5" clip-path="url(#clipPath4)"
      /><text x="31" font-size="14px" y="18.1094" clip-path="url(#clipPath4)" font-family="sans-serif" stroke="none" xml:space="preserve"
      >stack</text
    ></g
    ><g fill="rgb(255,255,255)" fill-opacity="0" transform="translate(540,720)" stroke-opacity="0" stroke="rgb(255,255,255)"
    ><rect x="0.5" width="438.5" height="248.5" y="0.5" clip-path="url(#clipPath3)" stroke="none"
    /></g
    ><g transform="translate(540,720)"
    ><rect fill="none" x="0.5" width="438.5" height="248.5" y="0.5" clip-path="url(#clipPath3)"
      /><text x="196" font-size="14px" y="18.1094" clip-path="url(#clipPath3)" font-family="sans-serif" stroke="none" xml:space="preserve"
      >Prober</text
      ><path fill="none" d="M1 24.1094 L439 24.1094" clip-path="url(#clipPath3)"
      /><text x="5" font-size="14px" y="39.2188" clip-path="url(#clipPath3)" font-family="sans-serif" stroke="none" xml:space="preserve"
      >+ enum mode {UNDEFINED, FLUSH_FLUSH, FLUSH_RELOAD}</text
      ><text x="5" font-size="14px" y="55.3281" clip-path="url(#clipPath3)" font-family="sans-serif" stroke="none" xml:space="preserve"
      >- mode _m;</text
      ><text x="5" font-size="14px" y="71.4375" clip-path="url(#clipPath3)" font-family="sans-serif" stroke="none" xml:space="preserve"
      >- int _timeout;</text
      ><path fill="none" d="M1 77.4375 L439 77.4375" clip-path="url(#clipPath3)"
      /><text x="5" font-size="14px" y="92.5469" clip-path="url(#clipPath3)" font-family="sans-serif" stroke="none" xml:space="preserve"
      >- Prober();</text
      ><text x="5" font-size="14px" y="108.6562" clip-path="url(#clipPath3)" font-family="sans-serif" stroke="none" xml:space="preserve"
      >- Prober(Prober::mode m, int timeout);</text
      ><text x="5" font-size="14px" y="124.7656" clip-path="url(#clipPath3)" font-family="sans-serif" stroke="none" xml:space="preserve"
      >- ~Prober();</text
      ><text x="5" font-size="14px" y="140.875" clip-path="url(#clipPath3)" font-family="sans-serif" stroke="none" xml:space="preserve"
      >- int probe(void *addr);</text
      ><text x="5" font-size="14px" y="156.9844" clip-path="url(#clipPath3)" font-family="sans-serif" stroke="none" xml:space="preserve"
      >- int getTimeout() const;</text
      ><text x="5" font-size="14px" y="173.0938" clip-path="url(#clipPath3)" font-family="sans-serif" stroke="none" xml:space="preserve"
      >- mode getMode() const;</text
      ><text x="5" font-size="14px" y="189.2031" clip-path="url(#clipPath3)" font-family="sans-serif" stroke="none" xml:space="preserve"
      >- void setMode(mode m);</text
      ><text x="5" font-size="14px" y="205.3125" clip-path="url(#clipPath3)" font-family="sans-serif" stroke="none" xml:space="preserve"
      >- void setTimeout(int t);</text
      ><text x="5" font-size="14px" y="221.4219" clip-path="url(#clipPath3)" font-family="sans-serif" stroke="none" xml:space="preserve"
      >+ int probe_fr(void *addr);</text
      ><text x="5" font-size="14px" y="237.5312" clip-path="url(#clipPath3)" font-family="sans-serif" stroke="none" xml:space="preserve"
      >+int probe_ff(void *addr);</text
    ></g
    ><g fill="rgb(255,255,255)" fill-opacity="0" transform="translate(120,360)" stroke-opacity="0" stroke="rgb(255,255,255)"
    ><rect x="0.5" width="578.5" height="218.5" y="0.5" clip-path="url(#clipPath5)" stroke="none"
    /></g
    ><g transform="translate(120,360)"
    ><rect fill="none" x="0.5" width="578.5" height="218.5" y="0.5" clip-path="url(#clipPath5)"
      /><text x="267" font-size="14px" y="18.1094" clip-path="url(#clipPath5)" font-family="sans-serif" stroke="none" xml:space="preserve"
      >Server</text
      ><path fill="none" d="M1 24.1094 L579 24.1094" clip-path="url(#clipPath5)"
      /><text x="5" font-size="14px" y="39.2188" clip-path="url(#clipPath5)" font-family="sans-serif" stroke="none" xml:space="preserve"
      >- int _seuil_ret_to_undef</text
      ><text x="5" font-size="14px" y="55.3281" clip-path="url(#clipPath5)" font-family="sans-serif" stroke="none" xml:space="preserve"
      >- int _seuil_pass_to_eop</text
      ><text x="5" font-size="14px" y="71.4375" clip-path="url(#clipPath5)" font-family="sans-serif" stroke="none" xml:space="preserve"
      >- std::string _nom</text
      ><text x="5" font-size="14px" y="87.5469" clip-path="url(#clipPath5)" font-family="sans-serif" stroke="none" xml:space="preserve"
      >- void* _addr</text
      ><text x="5" font-size="14px" y="103.6562" clip-path="url(#clipPath5)" font-family="sans-serif" stroke="none" xml:space="preserve"
      >- void* _func_base</text
      ><path fill="none" d="M1 109.6562 L579 109.6562" clip-path="url(#clipPath5)"
      /><text x="5" font-size="14px" y="124.7656" clip-path="url(#clipPath5)" font-family="sans-serif" stroke="none" xml:space="preserve"
      >+ Server()</text
      ><text x="5" font-size="14px" y="140.875" clip-path="url(#clipPath5)" font-family="sans-serif" stroke="none" xml:space="preserve"
      >+ Server(const Server&amp;)</text
      ><text x="5" font-size="14px" y="156.9844" clip-path="url(#clipPath5)" font-family="sans-serif" stroke="none" xml:space="preserve"
      >+ Server(string nom, Prober::mode m, int timeout, void* addr, void *func_base)</text
      ><text x="5" font-size="14px" y="173.0938" clip-path="url(#clipPath5)" font-family="sans-serif" stroke="none" xml:space="preserve"
      >+ ~Server()</text
      ><text x="5" font-size="14px" y="189.2031" clip-path="url(#clipPath5)" font-family="sans-serif" stroke="none" xml:space="preserve"
      >+ void receive()</text
      ><text x="5" font-size="14px" y="205.3125" clip-path="url(#clipPath5)" font-family="sans-serif" stroke="none" xml:space="preserve"
      >+ std::string getNom()</text
    ></g
    ><g transform="translate(1040,330)"
    ><path fill="none" d="M10.5 10.5 L10.5 150.5" clip-path="url(#clipPath6)"
    /></g
    ><g transform="translate(690,460)"
    ><path fill="none" d="M10.5 20.5 L730.5 20.5" clip-path="url(#clipPath7)"
      /><text x="316.6182" font-size="14px" y="16" clip-path="url(#clipPath7)" font-family="sans-serif" stroke="none" xml:space="preserve"
      >◄ communique</text
      ><text x="29" font-size="14px" y="34.1094" clip-path="url(#clipPath7)" font-family="sans-serif" stroke="none" xml:space="preserve"
      >0..n</text
      ><text x="701.0928" font-size="14px" y="34.1094" clip-path="url(#clipPath7)" font-family="sans-serif" stroke="none" xml:space="preserve"
      >1</text
    ></g
    ><g transform="translate(1440,490)"
    ><path fill="none" d="M10.5 11.5 L10.5 220.5" clip-path="url(#clipPath8)"
      /><path d="M4 22.2583 L10.5 11 L17 22.2583 L10.5 33.0167 Z" clip-path="url(#clipPath8)" stroke="none"
      /><path fill="none" d="M4 22.2583 L10.5 11 L17 22.2583 L10.5 33.0167 Z" clip-path="url(#clipPath8)"
    /></g
    ><g transform="translate(590,570)"
    ><path fill="none" d="M10.5 11.5 L10.5 150.5" clip-path="url(#clipPath6)"
      /><path d="M4 22.2583 L10.5 11 L17 22.2583 L10.5 33.0167 Z" clip-path="url(#clipPath6)" stroke="none"
      /><path fill="none" d="M4 22.2583 L10.5 11 L17 22.2583 L10.5 33.0167 Z" clip-path="url(#clipPath6)"
    /></g
    ><g transform="translate(350,570)"
    ><path fill="none" d="M10.5 11.5 L10.5 120.5" clip-path="url(#clipPath9)"
      /><path d="M4 22.2583 L10.5 11 L17 22.2583 L10.5 33.0167 Z" clip-path="url(#clipPath9)" stroke="none"
      /><path fill="none" d="M4 22.2583 L10.5 11 L17 22.2583 L10.5 33.0167 Z" clip-path="url(#clipPath9)"
    /></g
  ></g
></svg
>
