<?xml version="1.0" encoding="UTF-8"?>
<!DOCTYPE svg PUBLIC '-//W3C//DTD SVG 1.0//EN'
          'http://www.w3.org/TR/2001/REC-SVG-20010904/DTD/svg10.dtd'>
<svg fill-opacity="1" xmlns:xlink="http://www.w3.org/1999/xlink" color-rendering="auto" color-interpolation="auto" text-rendering="auto" stroke="black" stroke-linecap="square" width="710" stroke-miterlimit="10" shape-rendering="auto" stroke-opacity="1" fill="black" stroke-dasharray="none" font-weight="normal" stroke-width="1" viewBox="400 -20 710 1320" height="1320" xmlns="http://www.w3.org/2000/svg" font-family="'Dialog'" font-style="normal" stroke-linejoin="miter" font-size="12px" stroke-dashoffset="0" image-rendering="auto"
><!--Generated by the Batik Graphics2D SVG Generator--><defs id="genericDefs"
  /><g
  ><defs id="defs1"
    ><clipPath clipPathUnits="userSpaceOnUse" id="clipPath1"
      ><path d="M0 0 L2147483647 0 L2147483647 2147483647 L0 2147483647 L0 0 Z"
      /></clipPath
      ><clipPath clipPathUnits="userSpaceOnUse" id="clipPath2"
      ><path d="M0 0 L0 160 L650 160 L650 0 Z"
      /></clipPath
      ><clipPath clipPathUnits="userSpaceOnUse" id="clipPath3"
      ><path d="M0 0 L0 160 L630 160 L630 0 Z"
      /></clipPath
      ><clipPath clipPathUnits="userSpaceOnUse" id="clipPath4"
      ><path d="M0 0 L0 160 L610 160 L610 0 Z"
      /></clipPath
      ><clipPath clipPathUnits="userSpaceOnUse" id="clipPath5"
      ><path d="M0 0 L0 150 L630 150 L630 0 Z"
      /></clipPath
      ><clipPath clipPathUnits="userSpaceOnUse" id="clipPath6"
      ><path d="M0 0 L0 20 L20 20 L20 0 Z"
      /></clipPath
      ><clipPath clipPathUnits="userSpaceOnUse" id="clipPath7"
      ><path d="M0 0 L0 150 L650 150 L650 0 Z"
      /></clipPath
      ><clipPath clipPathUnits="userSpaceOnUse" id="clipPath8"
      ><path d="M0 0 L0 300 L630 300 L630 0 Z"
      /></clipPath
      ><clipPath clipPathUnits="userSpaceOnUse" id="clipPath9"
      ><path d="M0 0 L0 680 L650 680 L650 0 Z"
      /></clipPath
      ><clipPath clipPathUnits="userSpaceOnUse" id="clipPath10"
      ><path d="M0 0 L0 1070 L670 1070 L670 0 Z"
      /></clipPath
      ><clipPath clipPathUnits="userSpaceOnUse" id="clipPath11"
      ><path d="M0 0 L0 30 L100 30 L100 0 Z"
      /></clipPath
      ><clipPath clipPathUnits="userSpaceOnUse" id="clipPath12"
      ><path d="M0 0 L0 70 L290 70 L290 0 Z"
      /></clipPath
      ><clipPath clipPathUnits="userSpaceOnUse" id="clipPath13"
      ><path d="M0 0 L0 70 L120 70 L120 0 Z"
      /></clipPath
      ><clipPath clipPathUnits="userSpaceOnUse" id="clipPath14"
      ><path d="M0 0 L0 1260 L30 1260 L30 0 Z"
      /></clipPath
    ></defs
    ><g fill="rgb(255,255,255)" fill-opacity="0" transform="translate(430,1020)" stroke-opacity="0" stroke="rgb(255,255,255)"
    ><rect x="0.5" width="648.5" height="158.5" y="0.5" clip-path="url(#clipPath2)" stroke="none"
    /></g
    ><g transform="translate(430,1020)"
    ><rect fill="none" x="0.5" width="648.5" height="158.5" y="0.5" clip-path="url(#clipPath2)"
      /><path fill="none" d="M178.8793 0.5 L178.8793 14.3656 L169.6355 23.6094 L0.5 23.6094" clip-path="url(#clipPath2)"
      /><text x="5" font-size="14px" y="18.1094" clip-path="url(#clipPath2)" font-family="sans-serif" stroke="none" xml:space="preserve"
      >Envoi Signal Fin Paquet</text
    ></g
    ><g fill="rgb(255,255,255)" fill-opacity="0" transform="translate(440,680)" stroke-opacity="0" stroke="rgb(255,255,255)"
    ><rect x="0.5" width="628.5" height="158.5" y="0.5" clip-path="url(#clipPath3)" stroke="none"
    /></g
    ><g transform="translate(440,680)"
    ><rect fill="none" x="0.5" width="628.5" height="158.5" y="0.5" clip-path="url(#clipPath3)"
      /><path fill="none" d="M178.8793 0.5 L178.8793 14.3656 L169.6355 23.6094 L0.5 23.6094" clip-path="url(#clipPath3)"
      /><text x="5" font-size="14px" y="18.1094" clip-path="url(#clipPath3)" font-family="sans-serif" stroke="none" xml:space="preserve"
      >Envoi Signal Fin Paquet</text
    ></g
    ><g fill="rgb(255,255,255)" fill-opacity="0" transform="translate(450,340)" stroke-opacity="0" stroke="rgb(255,255,255)"
    ><rect x="0.5" width="608.5" height="158.5" y="0.5" clip-path="url(#clipPath4)" stroke="none"
    /></g
    ><g transform="translate(450,340)"
    ><rect fill="none" x="0.5" width="608.5" height="158.5" y="0.5" clip-path="url(#clipPath4)"
      /><path fill="none" d="M178.8793 0.5 L178.8793 14.3656 L169.6355 23.6094 L0.5 23.6094" clip-path="url(#clipPath4)"
      /><text x="5" font-size="14px" y="18.1094" clip-path="url(#clipPath4)" font-family="sans-serif" stroke="none" xml:space="preserve"
      >Envoi Signal Fin Paquet</text
    ></g
    ><g fill="rgb(255,255,255)" fill-opacity="0" transform="translate(440,520)" stroke-opacity="0" stroke="rgb(255,255,255)"
    ><rect x="0.5" width="628.5" height="148.5" y="0.5" clip-path="url(#clipPath5)" stroke="none"
    /></g
    ><g transform="translate(440,520)"
    ><rect fill="none" x="0.5" width="628.5" height="148.5" y="0.5" clip-path="url(#clipPath5)"
      /><path fill="none" d="M197.0834 0.5 L197.0834 14.3656 L187.8396 23.6094 L0.5 23.6094" clip-path="url(#clipPath5)"
      /><text x="5" font-size="14px" y="18.1094" clip-path="url(#clipPath5)" font-family="sans-serif" stroke="none" xml:space="preserve"
      >Envoi Signal Fin de Trame</text
    ></g
    ><g transform="translate(620,1130)"
    ><path fill="none" d="M0.5 0.5 L19 19" clip-path="url(#clipPath6)"
      /><path fill="none" d="M19 0.5 L0.5 19" clip-path="url(#clipPath6)"
    /></g
    ><g fill="rgb(255,255,255)" fill-opacity="0" transform="translate(430,860)" stroke-opacity="0" stroke="rgb(255,255,255)"
    ><rect x="0.5" width="648.5" height="148.5" y="0.5" clip-path="url(#clipPath7)" stroke="none"
    /></g
    ><g transform="translate(430,860)"
    ><rect fill="none" x="0.5" width="648.5" height="148.5" y="0.5" clip-path="url(#clipPath7)"
      /><path fill="none" d="M240.3412 0.5 L240.3412 14.3656 L231.0975 23.6094 L0.5 23.6094" clip-path="url(#clipPath7)"
      /><text x="5" font-size="14px" y="18.1094" clip-path="url(#clipPath7)" font-family="sans-serif" stroke="none" xml:space="preserve"
      >Envoi Signal Fin Communication</text
    ></g
    ><g fill="rgb(255,255,255)" fill-opacity="0" transform="translate(440,210)" stroke-opacity="0" stroke="rgb(255,255,255)"
    ><rect x="0.5" width="628.5" height="298.5" y="0.5" clip-path="url(#clipPath8)" stroke="none"
    /></g
    ><g transform="translate(440,210)"
    ><rect fill="none" x="0.5" width="628.5" height="298.5" y="0.5" clip-path="url(#clipPath8)"
      /><path fill="none" d="M153.0053 0.5 L153.0053 14.3656 L143.7615 23.6094 L0.5 23.6094" clip-path="url(#clipPath8)"
      /><text x="5" font-size="14px" y="18.1094" clip-path="url(#clipPath8)" font-family="sans-serif" stroke="none" xml:space="preserve"
      >Envoi trame [LOOP]</text
    ></g
    ><g fill="rgb(255,255,255)" fill-opacity="0" transform="translate(430,170)" stroke-opacity="0" stroke="rgb(255,255,255)"
    ><rect x="0.5" width="648.5" height="678.5" y="0.5" clip-path="url(#clipPath9)" stroke="none"
    /></g
    ><g transform="translate(430,170)"
    ><rect fill="none" x="0.5" width="648.5" height="678.5" y="0.5" clip-path="url(#clipPath9)"
      /><path fill="none" d="M159.8139 0.5 L159.8139 14.3656 L150.5701 23.6094 L0.5 23.6094" clip-path="url(#clipPath9)"
      /><text x="5" font-size="14px" y="18.1094" clip-path="url(#clipPath9)" font-family="sans-serif" stroke="none" xml:space="preserve"
      >Envoi Paquet [LOOP]</text
    ></g
    ><g fill="rgb(255,255,255)" fill-opacity="0" transform="translate(420,130)" stroke-opacity="0" stroke="rgb(255,255,255)"
    ><rect x="0.5" width="668.5" height="1068.5" y="0.5" clip-path="url(#clipPath10)" stroke="none"
    /></g
    ><g transform="translate(420,130)"
    ><rect fill="none" x="0.5" width="668.5" height="1068.5" y="0.5" clip-path="url(#clipPath10)"
      /><path fill="none" d="M116.9936 0.5 L116.9936 14.3656 L107.7498 23.6094 L0.5 23.6094" clip-path="url(#clipPath10)"
      /><text x="5" font-size="14px" y="18.1094" clip-path="url(#clipPath10)" font-family="sans-serif" stroke="none" xml:space="preserve"
      >Envoi données</text
    ></g
    ><g fill="rgb(255,255,255)" fill-opacity="0" transform="translate(840,0)" stroke-opacity="0" stroke="rgb(255,255,255)"
    ><rect x="0.5" width="98.5" height="28.5" y="0.5" clip-path="url(#clipPath11)" stroke="none"
    /></g
    ><g transform="translate(840,0)"
    ><rect fill="none" x="0.5" width="98.5" height="28.5" y="0.5" clip-path="url(#clipPath11)"
      /><text x="27" font-size="14px" y="18.1094" text-decoration="underline" clip-path="url(#clipPath11)" font-family="sans-serif" stroke="none" xml:space="preserve"
      >:Client</text
    ></g
    ><g fill="rgb(255,255,255)" fill-opacity="0" transform="translate(580,0)" stroke-opacity="0" stroke="rgb(255,255,255)"
    ><rect x="0.5" width="98.5" height="28.5" y="0.5" clip-path="url(#clipPath11)" stroke="none"
    /></g
    ><g transform="translate(580,0)"
    ><rect fill="none" x="0.5" width="98.5" height="28.5" y="0.5" clip-path="url(#clipPath11)"
      /><text x="20" font-size="14px" y="18.1094" text-decoration="underline" clip-path="url(#clipPath11)" font-family="sans-serif" stroke="none" xml:space="preserve"
      >:Serveur</text
    ></g
    ><g transform="translate(620,1080)"
    ><path fill="none" d="M11.4884 50.3479 L270.5 10.5" clip-path="url(#clipPath12)"
      /><path fill="none" d="M23.11 55.1365 L10.9942 50.424 L21.1332 42.2876" clip-path="url(#clipPath12)"
    /></g
    ><g transform="translate(620,1060)"
    ><path fill="none" d="M11.4884 50.3479 L270.5 10.5" clip-path="url(#clipPath12)"
      /><path fill="none" d="M23.11 55.1365 L10.9942 50.424 L21.1332 42.2876" clip-path="url(#clipPath12)"
    /></g
    ><g transform="translate(620,1040)"
    ><path fill="none" d="M11.4884 50.3479 L270.5 10.5" clip-path="url(#clipPath12)"
      /><path fill="none" d="M23.11 55.1365 L10.9942 50.424 L21.1332 42.2876" clip-path="url(#clipPath12)"
    /></g
    ><g transform="translate(620,740)"
    ><path fill="none" d="M11.4884 50.3479 L270.5 10.5" clip-path="url(#clipPath12)"
      /><path fill="none" d="M23.11 55.1365 L10.9942 50.424 L21.1332 42.2876" clip-path="url(#clipPath12)"
    /></g
    ><g transform="translate(620,720)"
    ><path fill="none" d="M11.4884 50.3479 L270.5 10.5" clip-path="url(#clipPath12)"
      /><path fill="none" d="M23.11 55.1365 L10.9942 50.424 L21.1332 42.2876" clip-path="url(#clipPath12)"
    /></g
    ><g transform="translate(620,700)"
    ><path fill="none" d="M11.4884 50.3479 L270.5 10.5" clip-path="url(#clipPath12)"
      /><path fill="none" d="M23.11 55.1365 L10.9942 50.424 L21.1332 42.2876" clip-path="url(#clipPath12)"
    /></g
    ><g transform="translate(620,400)"
    ><path fill="none" d="M11.4884 50.3479 L270.5 10.5" clip-path="url(#clipPath12)"
      /><path fill="none" d="M23.11 55.1365 L10.9942 50.424 L21.1332 42.2876" clip-path="url(#clipPath12)"
    /></g
    ><g transform="translate(620,380)"
    ><path fill="none" d="M11.4884 50.3479 L270.5 10.5" clip-path="url(#clipPath12)"
      /><path fill="none" d="M23.11 55.1365 L10.9942 50.424 L21.1332 42.2876" clip-path="url(#clipPath12)"
    /></g
    ><g transform="translate(620,360)"
    ><path fill="none" d="M11.4884 50.3479 L270.5 10.5" clip-path="url(#clipPath12)"
      /><path fill="none" d="M23.11 55.1365 L10.9942 50.424 L21.1332 42.2876" clip-path="url(#clipPath12)"
    /></g
    ><g transform="translate(620,580)"
    ><path fill="none" d="M11.4884 50.3479 L270.5 10.5" clip-path="url(#clipPath12)"
      /><path fill="none" d="M23.11 55.1365 L10.9942 50.424 L21.1332 42.2876" clip-path="url(#clipPath12)"
    /></g
    ><g transform="translate(620,560)"
    ><path fill="none" d="M11.4884 50.3479 L270.5 10.5" clip-path="url(#clipPath12)"
      /><path fill="none" d="M23.11 55.1365 L10.9942 50.424 L21.1332 42.2876" clip-path="url(#clipPath12)"
    /></g
    ><g transform="translate(620,540)"
    ><path fill="none" d="M11.4884 50.3479 L270.5 10.5" clip-path="url(#clipPath12)"
      /><path fill="none" d="M23.11 55.1365 L10.9942 50.424 L21.1332 42.2876" clip-path="url(#clipPath12)"
    /></g
    ><g transform="translate(620,920)"
    ><path fill="none" d="M11.4884 50.3479 L270.5 10.5" clip-path="url(#clipPath12)"
      /><path fill="none" d="M23.11 55.1365 L10.9942 50.424 L21.1332 42.2876" clip-path="url(#clipPath12)"
    /></g
    ><g transform="translate(620,900)"
    ><path fill="none" d="M11.4884 50.3479 L270.5 10.5" clip-path="url(#clipPath12)"
      /><path fill="none" d="M23.11 55.1365 L10.9942 50.424 L21.1332 42.2876" clip-path="url(#clipPath12)"
    /></g
    ><g transform="translate(620,880)"
    ><path fill="none" d="M11.4884 50.3479 L270.5 10.5" clip-path="url(#clipPath12)"
      /><path fill="none" d="M23.11 55.1365 L10.9942 50.424 L21.1332 42.2876" clip-path="url(#clipPath12)"
    /></g
    ><g transform="translate(620,270)"
    ><path fill="none" d="M11.4884 50.3479 L270.5 10.5" clip-path="url(#clipPath12)"
      /><path fill="none" d="M23.11 55.1365 L10.9942 50.424 L21.1332 42.2876" clip-path="url(#clipPath12)"
    /></g
    ><g transform="translate(620,250)"
    ><path fill="none" d="M11.4884 50.3479 L270.5 10.5" clip-path="url(#clipPath12)"
      /><path fill="none" d="M23.11 55.1365 L10.9942 50.424 L21.1332 42.2876" clip-path="url(#clipPath12)"
    /></g
    ><g transform="translate(620,230)"
    ><path fill="none" d="M11.4884 50.3479 L270.5 10.5" clip-path="url(#clipPath12)"
      /><path fill="none" d="M23.11 55.1365 L10.9942 50.424 L21.1332 42.2876" clip-path="url(#clipPath12)"
    /></g
    ><g transform="translate(620,60)"
    ><path fill="none" d="M11.5 50.5 L50.5 50.5" clip-path="url(#clipPath13)"
      /><path fill="none" d="M50.5 50.5 L50.5 10.5" clip-path="url(#clipPath13)"
      /><path fill="none" d="M50.5 10.5 L10.5 10.5" clip-path="url(#clipPath13)"
      /><path fill="none" d="M22.2583 57 L11 50.5 L22.2583 44" clip-path="url(#clipPath13)"
      /><text x="54" font-size="14px" y="38.0547" clip-path="url(#clipPath13)" font-family="sans-serif" stroke="none" xml:space="preserve"
      >écoute</text
    ></g
    ><g stroke-dasharray="8,5" stroke-miterlimit="5" transform="translate(880,20)" stroke-linecap="butt"
    ><path fill="none" d="M10.5 10.5 L10.5 1240.5" clip-path="url(#clipPath14)"
    /></g
    ><g stroke-dasharray="8,5" stroke-miterlimit="5" transform="translate(620,20)" stroke-linecap="butt"
    ><path fill="none" d="M10.5 10.5 L10.5 1240.5" clip-path="url(#clipPath14)"
    /></g
  ></g
></svg
>
